%YAML 1.1
%TAG !u! tag:unity3d.com,2011:
--- !u!21 &2100000
Material:
  serializedVersion: 6
  m_ObjectHideFlags: 0
  m_PrefabParentObject: {fileID: 0}
  m_PrefabInternal: {fileID: 0}
  m_Name: Controller_End
  m_Shader: {fileID: 4800000, guid: 89b18f3351773cd40b880c34e6ac5614, type: 3}
  m_ShaderKeywords: 
  m_LightmapFlags: 5
  m_EnableInstancingVariants: 0
  m_DoubleSidedGI: 0
  m_CustomRenderQueue: -1
  stringTagMap: {}
  disabledShaderPasses: []
  m_SavedProperties:
    serializedVersion: 3
    m_TexEnvs:
    - _MKGlowTex:
        m_Texture: {fileID: 2800000, guid: 62ff52fdbec86824eb34f389e9bbb0db, type: 3}
        m_Scale: {x: 1, y: 1}
        m_Offset: {x: 0, y: 0}
    - _MainTex:
        m_Texture: {fileID: 2800000, guid: 0fc79cd77bce1e943a5d880b1c59f99e, type: 3}
        m_Scale: {x: 1, y: 1}
        m_Offset: {x: 0, y: 0}
    - _ToonShade:
        m_Texture: {fileID: 0}
        m_Scale: {x: 1, y: 1}
        m_Offset: {x: 0, y: 0}
    m_Floats:
    - _Emission: 1
    - _MKGlowOffSet: 0
    - _MKGlowPower: 1.4
    - _MKGlowTexStrength: 1.24
    - _Outline: 0.005
    m_Colors:
    - _Color: {r: 0.52156866, g: 0.52156866, b: 0.52156866, a: 1}
    - _MKGlowColor: {r: 0, g: 0, b: 0, a: 1}
    - _MKGlowTexColor: {r: 0.59607846, g: 0.34117648, b: 0.972549, a: 1}
    - _OutlineColor: {r: 0, g: 0, b: 0, a: 1}
