{
    "name": "Tests",
    "references": [
        "Narupa.Refactor"
    ],
    "optionalUnityReferences": [
        "TestAssemblies"
    ],
    "includePlatforms": [],
    "excludePlatforms": [],
    "allowUnsafeCode": false
}