%YAML 1.1
%TAG !u! tag:unity3d.com,2011:
--- !u!114 &11400000
MonoBehaviour:
  m_ObjectHideFlags: 0
  m_CorrespondingSourceObject: {fileID: 0}
  m_PrefabInternal: {fileID: 0}
  m_GameObject: {fileID: 0}
  m_Enabled: 1
  m_EditorHideFlags: 0
  m_Script: {fileID: 11500000, guid: 1638b397efad4ad2a353561c4bf3ae18, type: 3}
  m_Name: CPK-Rasmol
  m_EditorClassIdentifier: 
  dictionary:
  - AtomicNumber: 1
    Color: {r: 1, g: 1, b: 1, a: 1}
  - AtomicNumber: 2
    Color: {r: 1, g: 0.7529412, b: 0.79607844, a: 1}
  - AtomicNumber: 3
    Color: {r: 0.69803923, g: 0.12941177, b: 0.12941177, a: 1}
  - AtomicNumber: 5
    Color: {r: 0, g: 1, b: 0, a: 1}
  - AtomicNumber: 6
    Color: {r: 0.827451, g: 0.827451, b: 0.827451, a: 1}
  - AtomicNumber: 7
    Color: {r: 0.5294118, g: 0.80784315, b: 0.9019608, a: 1}
  - AtomicNumber: 8
    Color: {r: 1, g: 0, b: 0, a: 1}
  - AtomicNumber: 9
    Color: {r: 0.85490197, g: 0.64705884, b: 0.1254902, a: 1}
  - AtomicNumber: 11
    Color: {r: 0, g: 0, b: 1, a: 1}
  - AtomicNumber: 12
    Color: {r: 0.13333334, g: 0.54509807, b: 0.13333334, a: 1}
  - AtomicNumber: 13
    Color: {r: 0.4117647, g: 0.4117647, b: 0.4117647, a: 1}
  - AtomicNumber: 14
    Color: {r: 0.85490197, g: 0.64705884, b: 0.1254902, a: 1}
  - AtomicNumber: 15
    Color: {r: 1, g: 0.6666667, b: 0, a: 1}
  - AtomicNumber: 16
    Color: {r: 1, g: 1, b: 0, a: 1}
  - AtomicNumber: 17
    Color: {r: 0, g: 1, b: 0, a: 1}
  - AtomicNumber: 20
    Color: {r: 0.4117647, g: 0.4117647, b: 0.4117647, a: 1}
  - AtomicNumber: 22
    Color: {r: 0.4117647, g: 0.4117647, b: 0.4117647, a: 1}
  - AtomicNumber: 24
    Color: {r: 0.4117647, g: 0.4117647, b: 0.4117647, a: 1}
  - AtomicNumber: 25
    Color: {r: 0.4117647, g: 0.4117647, b: 0.4117647, a: 1}
  - AtomicNumber: 26
    Color: {r: 1, g: 0.6666667, b: 0, a: 1}
  - AtomicNumber: 28
    Color: {r: 0.5019608, g: 0.15686275, b: 0.15686275, a: 1}
  - AtomicNumber: 29
    Color: {r: 0.5019608, g: 0.15686275, b: 0.15686275, a: 1}
  - AtomicNumber: 30
    Color: {r: 0.5019608, g: 0.15686275, b: 0.15686275, a: 1}
  - AtomicNumber: 35
    Color: {r: 0.5019608, g: 0.15686275, b: 0.15686275, a: 1}
  - AtomicNumber: 47
    Color: {r: 0.4117647, g: 0.4117647, b: 0.4117647, a: 1}
  - AtomicNumber: 53
    Color: {r: 0.627451, g: 0.1254902, b: 0.9411765, a: 1}
  - AtomicNumber: 56
    Color: {r: 1, g: 0.6666667, b: 0, a: 1}
  - AtomicNumber: 79
    Color: {r: 0.85490197, g: 0.64705884, b: 0.1254902, a: 1}
  defaultColor: {r: 0.98039216, g: 0.08627451, b: 0.5686275, a: 1}
